Lab 3
…
#examine the SD to see with county varied the most

Kansas_sub %>% 
  group_by(County) %>%
  summarize(SD_MFI = sd(MedianFamilyIncome)) %>%
  arrange(SD_MFI)

## # A tibble: 105 x 2
##    County     SD_MFI
##    <chr>       <dbl>
##  1 Ellsworth    243.
##  2 Jewell       261.
##  3 Linn         844.
##  4 Sheridan     907.
##  5 Stafford     998.
##  6 Pawnee      1179.
##  7 Thomas      1211.
##  8 Washington  1225.
##  9 Coffey      1606.
## 10 Pratt       1651.
## # ... with 95 more rows
…
Now check to see how MedianFamilyIncome compares across locations with low (or not) food accessibility (LAhalfand10). Compare using both basic descriptive statistics and graphical representation. What did you find

I found no obvious difference in medianfamilyincome when examining across all locations. When examining by county, 8 out of 10 of the highest mean medianfamilyincomes did not have low food accessibility. When plotting all of the counties, all of the boxplots overlap suggesting a lack in a significant difference.

#descriptive statistics
Kansas_sub %>% 
  group_by(County, LAhalfand10) %>%
  summarize(SD_MFI = sd(MedianFamilyIncome),
            AVG_MFI = mean(MedianFamilyIncome)) %>%
  arrange(desc(AVG_MFI))

## `summarise()` has grouped output by 'County'. You can override using the `.groups` argument.

## # A tibble: 161 x 4
## # Groups:   County [105]
##    County      LAhalfand10 SD_MFI AVG_MFI
##    <chr>             <int>  <dbl>   <dbl>
##  1 Johnson               1 35995.  93928.
##  2 Leavenworth           0  9133.  83646.
##  3 Miami                 0 11590.  83076.
##  4 Butler                0 10232.  80421.
##  5 Cowley                0    NA   78182 
##  6 Johnson               0 36217.  76749.
##  7 Shawnee               0 13239.  76189.
##  8 Finney                0 40520.  76137 
##  9 Lyon                  0    NA   74750 
## 10 Wallace               1    NA   72188 
## # ... with 151 more rows
…
#Summary stats and plot for TractSNAP (count of houses who receive SNAP benefits) by county 
Kansas_sub %>% 
  group_by(County,LAhalfand10) %>%
  summarize(SD_SNAP = sd(TractSNAP),
            AVG_SNAP = mean(TractSNAP)) %>%
  arrange(desc(AVG_SNAP))

## `summarise()` has grouped output by 'County'. You can override using the `.groups` argument.

## # A tibble: 161 x 4
## # Groups:   County [105]
##    County   LAhalfand10 SD_SNAP AVG_SNAP
##    <chr>    <chr>         <dbl>    <dbl>
##  1 Miami    1              80.6     344 
##  2 Anderson 0              NA       323 
##  3 Bourbon  0              NA       304 
##  4 Brown    1              NA       265 
##  5 Cherokee 1              83.7     248 
##  6 Atchison 1              75.0     247.
##  7 Lyon     1             118.      242.
##  8 Linn     0              NA       240 
##  9 Shawnee  1             154.      230.
## 10 Franklin 1              82.5     225.
## # ... with 151 more rows
…
